Heatmap y PCA
…
Datos_PCR2<- vroom("https://raw.githubusercontent.com/ManuelLaraMVZ/Heatmaps/refs/heads/main/miRNA_qPCR_Ct_Data_1550_miRNAs3.csv")

## Rows: 1552 Columns: 10
## ── Column specification ────────────────────────────────────────────────────────
## Delimiter: ","
## chr (2): Gene, Condition
## dbl (8): Control_1, Control_2, Control_3, Control_4, Treatment_1, Treatment_...
## 
## ℹ Use `spec()` to retrieve the full column specification for this data.
## ℹ Specify the column types or set `show_col_types = FALSE` to quiet this message.

Datos_PCR2

## # A tibble: 1,552 × 10
##    Gene     Condition Control_1 Control_2 Control_3 Control_4 Treatment_1
##    <chr>    <chr>         <dbl>     <dbl>     <dbl>     <dbl>       <dbl>
##  1 miR-0001 Target         19.4      19.8      21.6      20.1        30.1
##  2 miR-0002 Target         29.3      29.6      31.2      30.4        20.4
##  3 miR-0003 Target         20.5      18.0      20.7      19.5        28.9
##  4 miR-0004 Target         29.4      28.3      30.8      30.2        18.9
##  5 miR-0005 Target         20.9      20.9      20.8      20.7        30.6
##  6 miR-0006 Target         29.3      29.8      28.7      32.2        21.2
##  7 miR-0007 Target         20.8      19.9      20.3      20.0        30.0
##  8 miR-0008 Target         28.5      30.6      30.1      30.2        20.4
##  9 miR-0009 Target         18.9      20.3      20.4      20.1        30.9
## 10 miR-0010 Target         31.0      29.3      29.3      31.0        19.7
## # ℹ 1,542 more rows
## # ℹ 3 more variables: Treatment_2 <dbl>, Treatment_3 <dbl>, Treatment_4 <dbl>
…
Dct2<- Datos_PCR2 %>% 
  filter(Condition == "Target") %>% 
  select(-2) %>% 
  mutate(across(-1, ~ -(. -Ref_gen_prom2[[cur_column()]][1]),
                .names = "Dct_{.col}")) %>% 
  select(Gene, starts_with("Dct_"))

Dct2

## # A tibble: 1,550 × 9
##    Gene  Dct_Control_1 Dct_Control_2 Dct_Control_3 Dct_Control_4 Dct_Treatment_1
##    <chr>         <dbl>         <dbl>         <dbl>         <dbl>           <dbl>
##  1 miR-…          5.34          5.13          2.98          5.00           -5.03
##  2 miR-…         -4.53         -4.65         -6.69         -5.29            4.69
##  3 miR-…          4.29          6.87          3.83          5.54           -3.84
##  4 miR-…         -4.59         -3.41         -6.30         -5.09            6.23
##  5 miR-…          3.89          4.02          3.71          4.38           -5.46
##  6 miR-…         -4.52         -4.89         -4.20         -7.10            3.89
##  7 miR-…          4.00          4.98          4.28          5.10           -4.86
##  8 miR-…         -3.67         -5.68         -5.59         -5.15            4.72
##  9 miR-…          5.85          4.60          4.09          5.01           -5.83
## 10 miR-…         -6.22         -4.39         -4.78         -5.96            5.38
## # ℹ 1,540 more rows
## # ℹ 3 more variables: Dct_Treatment_2 <dbl>, Dct_Treatment_3 <dbl>,
## #   Dct_Treatment_4 <dbl>
…
